<?xml version="1.0" standalone="no"?>
<!DOCTYPE svg PUBLIC "-//W3C//DTD SVG 20010904//EN"
 "http://www.w3.org/TR/2001/REC-SVG-20010904/DTD/svg10.dtd">
<svg version="1.0" xmlns="http://www.w3.org/2000/svg"
 width="411.000000pt" height="411.000000pt" viewBox="0 0 411.000000 411.000000"
 preserveAspectRatio="xMidYMid meet">
<metadata>
Created by potrace 1.11, written by Peter Selinger 2001-2013
</metadata>
<g transform="translate(0.000000,411.000000) scale(0.100000,-0.100000)"
fill="#000000" stroke="none">
<path d="M858 3723 c132 -240 150 -318 108 -468 -25 -89 -26 -125 -5 -146 19
-19 42 -20 139 -3 63 11 138 13 165 6 19 -5 40 -24 58 -49 22 -34 35 -43 70
-49 23 -4 48 -7 55 -5 17 3 15 -6 -8 -37 -11 -15 -22 -36 -24 -47 -33 -176
-29 -207 27 -268 29 -30 32 -38 29 -86 -4 -49 -6 -52 -26 -47 -11 4 -43 11
-71 16 -27 6 -57 13 -66 15 -13 4 -22 -10 -40 -67 -12 -40 -26 -78 -30 -83 -5
-6 -48 -31 -96 -55 -48 -25 -92 -49 -98 -53 -5 -4 -41 -28 -80 -53 -80 -52
-155 -128 -155 -157 0 -11 9 -35 21 -54 14 -22 19 -43 16 -61 -4 -18 6 -54 28
-107 50 -121 50 -112 -3 -121 -26 -4 -54 -9 -62 -10 -8 -1 -33 -4 -55 -8 -22
-3 -62 -8 -90 -11 -27 -3 -113 -15 -190 -26 -77 -10 -169 -22 -205 -25 -107
-9 -146 -32 -165 -100 -7 -25 15 -47 70 -68 36 -14 543 -160 591 -171 10 -2
44 -12 74 -22 45 -15 58 -24 71 -53 27 -56 23 -70 -79 -290 -16 -36 -46 -101
-67 -145 -111 -241 -174 -383 -180 -405 -16 -66 48 -114 119 -90 24 8 123 101
337 315 166 168 305 303 307 301 2 -2 -1 -12 -7 -23 -6 -10 -22 -46 -35 -81
l-25 -63 54 -127 c89 -212 93 -217 176 -238 111 -29 112 -29 179 40 33 33 77
86 98 116 l37 55 50 -16 c51 -16 60 -34 33 -66 -12 -15 1 -40 55 -110 31 -40
53 -56 95 -73 30 -11 56 -19 57 -18 0 2 15 21 31 43 17 22 41 59 54 82 23 41
23 42 5 95 -9 29 -18 64 -20 78 -1 14 -14 52 -30 85 -29 63 -34 101 -24 175
13 90 -29 117 -99 63 l-35 -26 8 29 c19 72 22 94 20 138 -2 43 1 48 29 63 17
8 52 30 77 48 l47 34 62 -20 c34 -10 70 -19 81 -19 14 0 19 -7 19 -26 0 -29
16 -64 30 -64 5 0 18 17 29 37 l19 37 36 -77 c30 -64 89 -269 85 -295 -1 -4 0
-9 1 -12 9 -24 11 -74 6 -204 -3 -61 21 -131 65 -196 49 -73 118 -92 192 -54
67 35 335 280 435 400 95 113 154 225 154 291 1 44 -111 144 -190 171 -20 7
-52 19 -70 28 -57 27 -146 20 -192 -14 -14 -11 -44 -55 -67 -98 -37 -70 -63
-101 -63 -77 0 4 -13 14 -28 21 -24 10 -34 27 -60 105 -43 129 -44 138 -23
173 10 17 22 51 27 75 4 24 8 46 9 49 1 3 5 19 9 35 4 17 10 38 12 47 6 21
-27 52 -89 83 l-49 24 39 10 c79 21 163 112 163 175 0 17 7 41 15 53 12 18 22
20 70 16 52 -5 55 -3 65 22 17 44 12 64 -20 80 -42 22 -65 19 -135 -17 l-63
-31 -27 21 -27 22 78 36 c44 20 106 48 139 64 125 58 160 74 165 75 3 1 43 20
90 42 294 139 279 136 347 87 l46 -33 33 25 33 26 15 -36 c17 -41 18 -42 51
-20 33 22 31 36 -6 58 l-30 18 32 24 c34 25 48 20 49 -17 0 -33 24 -39 55 -14
l30 23 -23 21 c-13 11 -29 22 -35 25 -7 2 0 15 18 29 l30 25 10 -28 c15 -44
29 -54 54 -39 24 16 37 42 22 47 -17 6 -56 40 -51 44 3 2 40 30 83 62 65 48
77 62 77 86 0 33 -36 57 -80 55 -69 -5 -186 -18 -193 -22 -4 -2 -5 10 -1 29
11 60 11 61 -24 63 -42 2 -50 -14 -29 -57 9 -18 15 -33 14 -34 -8 -8 -68 -11
-72 -4 -3 5 -1 20 5 35 13 34 -2 55 -33 48 -42 -11 -47 -22 -25 -59 19 -32 19
-34 1 -35 -10 -1 -28 -3 -41 -4 -21 -2 -22 1 -17 37 l6 39 -35 -3 c-42 -2 -49
-16 -30 -53 17 -33 17 -33 2 -32 -58 2 -68 -3 -68 -33 0 -60 -40 -108 -101
-123 -15 -4 -84 -34 -154 -67 -70 -33 -128 -60 -130 -60 -5 0 -199 -91 -215
-101 -8 -5 -22 -12 -30 -15 -23 -8 -191 -85 -220 -99 -21 -11 -30 -10 -62 6
-40 20 -48 36 -23 45 25 10 17 29 -25 63 -63 50 -134 82 -174 78 -45 -5 -49
-1 -28 31 9 14 17 35 18 46 1 12 5 44 9 71 4 28 9 65 10 83 3 36 16 57 74 122
23 25 43 59 46 75 54 328 32 463 -93 581 -42 39 -140 83 -217 97 -92 18 -178
15 -310 -9 -59 -11 -160 -61 -202 -100 -24 -23 -44 -35 -44 -27 -1 7 -2 19 -3
26 -1 6 4 31 10 55 5 24 8 56 6 72 -7 50 -68 109 -151 146 -41 19 -90 46 -108
60 -18 14 -33 21 -34 17 -6 -43 -4 -132 4 -149 9 -20 50 -45 125 -74 38 -15
51 -34 46 -70 -13 -104 -12 -128 8 -166 11 -21 31 -46 45 -57 36 -29 20 -32
-24 -5 -42 26 -96 48 -188 73 -96 27 -101 38 -60 131 25 56 29 80 26 136 -2
48 -55 94 -174 151 -62 30 -132 70 -157 88 -70 54 -71 54 -32 -18z m340 -1692
c9 -5 32 -15 50 -22 l33 -12 -7 -71 c-4 -39 -8 -80 -8 -91 -2 -32 -14 -43 -41
-40 -14 1 -27 4 -29 6 -8 11 -56 141 -56 153 0 8 -6 21 -14 29 -13 12 -13 17
0 36 16 22 43 27 72 12z m1047 -21 c-3 -5 -12 -10 -18 -10 -7 0 -6 4 3 10 19
12 23 12 15 0z m-163 -59 c22 -8 22 -8 -7 -23 -17 -9 -58 -27 -92 -41 -58 -23
-61 -24 -66 -7 -6 23 18 59 46 69 30 11 92 12 119 2z m271 -224 c11 -10 32
-20 46 -23 14 -3 37 -10 51 -14 22 -8 23 -9 4 -9 -12 -1 -63 -22 -113 -47 -92
-45 -115 -50 -117 -23 0 8 -2 24 -2 36 -2 25 -40 49 -93 58 -33 6 -65 25 -42
25 6 0 53 20 104 44 l92 44 25 -36 c14 -20 34 -45 45 -55z"/>
</g>
</svg>
